<?xml version="1.0" encoding="utf-8"?>
<!-- Generator: Adobe Illustrator 16.0.0, SVG Export Plug-In . SVG Version: 6.00 Build 0)  -->
<!DOCTYPE svg PUBLIC "-//W3C//DTD SVG 1.1//EN" "http://www.w3.org/Graphics/SVG/1.1/DTD/svg11.dtd">
<svg version="1.1" id="Calque_1" xmlns="http://www.w3.org/2000/svg" x="0px" y="0px"
     width="59.528px" height="59.528px" viewBox="-0.001 -0.001 59.528 59.528"
     enable-background="new -0.001 -0.001 59.528 59.528"
     xml:space="preserve">
<title>2AE3A01B-DF55-4031-AA62-DB8176714CE8</title>
    <desc>Created with sketchtool.</desc>
    <g id="Symbols">
	<g id="Header-Elements_x2F_Navigation_x2F_Hamburger-Button_x2F_Active">
		<g id="hamburger-button-active">
			<path id="Fill-1" display="none" fill="#C1262B" d="M58.502,29.25c0,16.156-13.096,29.25-29.251,29.25
				c-16.155,0-29.251-13.094-29.251-29.25c0-16.155,13.096-29.25,29.251-29.25C45.406-0.001,58.502,13.095,58.502,29.25z"/>
            <path id="Fill-1_1_" fill="#C1262B" d="M58.502,29.25c0,16.156-13.096,29.25-29.251,29.25c-16.155,0-29.251-13.094-29.251-29.25
				c0-16.155,13.096-29.25,29.251-29.25C45.406-0.001,58.502,13.095,58.502,29.25z"/>
            <path id="Stroke-3" fill="#C1262B" stroke="#FFFFFF" stroke-width="3" stroke-linecap="round"
                  stroke-linejoin="round" d="
				M12.999,17.549h32.5"/>
            <path id="Stroke-5" fill="#C1262B" stroke="#FFFFFF" stroke-width="3" stroke-linecap="round"
                  stroke-linejoin="round" d="
				M12.999,29.25h32.5"/>
            <path id="Stroke-7" fill="#C1262B" stroke="#FFFFFF" stroke-width="3" stroke-linecap="round"
                  stroke-linejoin="round" d="
				M12.999,40.299h32.5"/>
		</g>
	</g>
</g>
</svg>
