<?xml version="1.0" encoding="UTF-8"?>
<svg width="40px" height="40px" viewBox="0 0 40 40" version="1.1" xmlns="http://www.w3.org/2000/svg">
    <!-- Generator: sketchtool 54.1 (76490) - https://sketchapp.com -->
    <title>8262EDD8-34A7-4F9A-A416-D083A281ABED</title>
    <desc>Created with sketchtool.</desc>
    <g id="Page-1" stroke="none" stroke-width="1" fill="none" fill-rule="evenodd">
        <g id="Page_presentation_quizz_v2" transform="translate(-1197.000000, -733.000000)">
            <g id="FOOTER_desktop" transform="translate(135.000000, 716.000000)">
                <g id="FOOTER">
                    <g id="SOCIAL" transform="translate(782.000000, 16.000000)">
                        <g id="ICON-SOCIAL" transform="translate(179.000000, 0.000000)">
                            <g id="LINKEDIN" transform="translate(101.000000, 1.000000)">
                                <path d="M20,0 C8.954,0 0,8.954 0,20 C0,31.046 8.954,40 20,40 C31.046,40 40,31.046 40,20 C40,8.954 31.046,0 20,0"
                                      id="Fill-16-Copy" fill="#0077B5"></path>
                                <path d="M14.9425,11.9565217 C14.9425,13.0373043 14.06375,13.9130435 12.9791667,13.9130435 C11.8945833,13.9130435 11.0158333,13.0373043 11.0158333,11.9565217 C11.0158333,10.8765217 11.8945833,10 12.9791667,10 C14.06375,10 14.9425,10.8765217 14.9425,11.9565217 Z M14.9583333,15.4782609 L11,15.4782609 L11,28 L14.9583333,28 L14.9583333,15.4782609 Z M21.2774167,15.4782609 L17.3444167,15.4782609 L17.3444167,28 L21.2782083,28 L21.2782083,21.4268696 C21.2782083,17.772087 26.0511667,17.4731304 26.0511667,21.4268696 L26.0511667,28 L30,28 L30,20.0713913 C30,13.9044348 22.93675,14.1290435 21.2774167,17.1647826 L21.2774167,15.4782609 Z"
                                      id="Shape" fill="#FFFFFF" fill-rule="nonzero"></path>
                            </g>
                        </g>
                    </g>
                </g>
            </g>
        </g>
    </g>
</svg>