<svg id="Calque_1" data-name="Calque 1" xmlns="http://www.w3.org/2000/svg" viewBox="0 0 25.15 25.15">
    <defs>
        <style>.cls-1,.cls-3{fill:none;}.cls-2{clip-path:url(#clip-path);}.cls-3{stroke:#ffffff;stroke-width:0.98px;}
        </style>
        <clipPath id="clip-path" transform="translate(-4.15 -3.13)">
            <rect class="cls-1" x="4.15" y="3.13" width="25.15" height="25.15"/>
        </clipPath>
    </defs>
    <title>quetsion</title>
    <g class="cls-2">
        <path class="cls-3"
              d="M28.81,15.7A12.09,12.09,0,1,1,16.73,3.62,12.08,12.08,0,0,1,28.81,15.7ZM15,17.43c0-1.55,2.36-3.17,3.29-4.1A1.83,1.83,0,0,0,16,10.49a1.79,1.79,0,0,0-.86,1.36c0,.67-.14,1-.81,1H13.21c-.67,0-1.09-.3-1.09-1a4.86,4.86,0,1,1,8.31,3.62c-.67.65-2.55,1.73-2.55,2.53v.58a.63.63,0,0,1-.64.57H15.51a.52.52,0,0,1-.51-.57Zm-.06,5.17a1.73,1.73,0,1,0,1.72-1.72A1.72,1.72,0,0,0,14.94,22.6Z"
              transform="translate(-4.15 -3.13)"/>
    </g>
</svg>