<svg id="Calque_1" data-name="Calque 1" xmlns="http://www.w3.org/2000/svg" viewBox="0 0 26.23 24.21">
    <defs>
        <style>.cls-1{fill:none;}.cls-2{clip-path:url(#clip-path);}.cls-3{fill:#ffffff;}</style>
        <clipPath id="clip-path" transform="translate(-2.6 -3.48)">
            <rect class="cls-1" x="2.6" y="3.48" width="26.23" height="24.21"/>
        </clipPath>
    </defs>
    <title>sommeil</title>
    <g class="cls-2">
        <path class="cls-3"
              d="M14,26.68A10.38,10.38,0,0,1,9.31,7,10.45,10.45,0,0,0,23.25,21,10.36,10.36,0,0,1,14,26.68m10-7.3a9.43,9.43,0,0,1-13.1-13.1.5.5,0,0,0,0-.59.51.51,0,0,0-.57-.17A11.39,11.39,0,1,0,24.77,20a.5.5,0,0,0-.76-.58m-8.8-14.9h4.84l-5.19,5.2a.49.49,0,0,0-.11.55.5.5,0,0,0,.46.31h6.06a.51.51,0,0,0,0-1H16.43l5.19-5.19a.5.5,0,0,0-.35-.86H15.21a.5.5,0,0,0-.5.5.5.5,0,0,0,.5.5m1.56,12.81a.49.49,0,0,0,.46.31h3a.51.51,0,0,0,0-1H18.45l2.16-2.16a.5.5,0,0,0,.11-.55.49.49,0,0,0-.46-.31h-3a.5.5,0,0,0,0,1H19l-2.16,2.17a.49.49,0,0,0-.11.55m11.56-3.22H25.51l3.18-3.18a.49.49,0,0,0,.1-.54.5.5,0,0,0-.46-.32h-4a.5.5,0,0,0-.5.51.5.5,0,0,0,.5.5h2.82l-3.17,3.18a.49.49,0,0,0-.11.55.51.51,0,0,0,.46.31h4a.51.51,0,0,0,0-1"
              transform="translate(-2.6 -3.48)"/>
    </g>
</svg>